ZeroCurve class — ZeroCurve • fmbasics
…
CubicInterpolation: natural cubic spline on zero rates

Points outside the calibration region use constant extrapolation on zero rates.

    See also

    Interpolation

    Examples

build_zero_curve()
#> <ZeroCurve> @ 31 December 2015 
#> # A tibble: 27 x 2
#>     Years  Zeros
#>     <dbl>  <dbl>
#>  1 0.0110 0.0200
#>  2 0.0329 0.0200
#>  3 0.0521 0.0200
#>  4 0.0986 0.0200
#>  5 0.184  0.0198
#>  6 0.263  0.0197
#>  7 0.345  0.0195
#>  8 0.436  0.0194
#>  9 0.512  0.0192
#> 10 0.764  0.0190
#> # … with 17 more rows
…
